[ { "id_member": 1 , "nama": "Member 1", "telp": "085153536888", "kota":"Kota 1" },
  { "id_member": 2 , "nama": "Member Dua", "telp": "085153536888" , "kota":"Kota 1"   },
  { "id_member": 3 , "nama": "Member Tiga", "telp": "085153536888" , "kota":"Kota 1"   },
  { "id_member": 4 , "nama": "Member Empat", "telp": "085153536888" , "kota":"Kota 1"  },
  { "id_member": 5 , "nama": "Member City", "telp": "085153536888", "kota":"Kota 1"   },
  { "id_member": 6 , "nama": "Member Aires", "telp": "085153536888" , "kota":"Kota 1"  },
  { "id_member": 7 , "nama": "Member Tujuh", "telp": "085153536888", "kota":"Kota 1" },
  { "id_member": 8 , "nama": "Member Delapan", "telp": "085153536888", "kota":"Kota 1" },
  { "id_member": 9 , "nama": "Member Sembilan", "telp": "085153536888", "kota":"Kota 1" },
  { "id_member": 10, "nama": "Member Sepuluh", "telp": "085153536888"  , "kota":"Kota 1"    },
  { "id_member": 11, "nama": "New Member", "telp": "085153536888"   , "kota":"Kota 1"   },
  { "id_member": 12, "nama": "Member Dua Belas", "telp": "085153536888"   , "kota":"Kota 1"   },
  { "id_member": 13, "nama": "Member Tiga Belas", "telp": "085153536888"  , "kota":"Kota 1"  },
  { "id_member": 14, "nama": "Member Town Empat Belas", "telp": "085153536888" , "kota":"Kota 1"   },
  { "id_member": 15, "nama": "Member Lima Belas", "telp": "085153536888"  , "kota":"Kota 1"  }
]