<?xml version="1.0" standalone="yes"?>
<svg xmlns="http://www.w3.org/2000/svg" width="275" height="183">
<path style="fill:#f7f7f7; stroke:none;" d="M0 0L0 183L275 183L275 0L0 0z"/>
<path style="fill:#b5b5b5; stroke:none;" d="M123 7L124 8L123 7z"/>
<path style="fill:#828382; stroke:none;" d="M124 7L124 8L127 8L124 7z"/>
<path style="fill:#b5b5b5; stroke:none;" d="M127 7L128 8L127 7M146 7L146 8L149 8L146 7M121 8L122 9L121 8z"/>
<path style="fill:#4a4c4c; stroke:none;" d="M122.093 9.02855L112.96 17.2184L100.738 19.5139L95.6968 30.8665L86.0285 38.1335L86.1543 51L80.287 62L86.4622 75L85.7461 86.892L96.436 95.1335L101.317 106.397L113.957 109.028L123.043 117.062L136 114.09L146.999 117.638L158.104 109.179L170.772 106.821L176.434 95.1335L186.781 86.9452L186.219 75L192.427 63L185.951 51L186.396 39.0548L176.318 30.8665L171.566 19.5177L160.015 17.2431L148.96 8.47685L137 11.5918L122.093 9.02855z"/>
<path style="fill:#828382; stroke:none;" d="M129 8L130 9L129 8z"/>
<path style="fill:#b5b5b5; stroke:none;" d="M143 8L144 9L143 8z"/>
<path style="fill:#5a5c5b; stroke:none;" d="M144 8L145 9L144 8M150 8L151 9L150 8z"/>
<path style="fill:#b5b5b5; stroke:none;" d="M151 8L152 9L151 8z"/>
<path style="fill:#828382; stroke:none;" d="M120 9L121 10L120 9z"/>
<path style="fill:#5a5c5b; stroke:none;" d="M130 9L131 10L130 9z"/>
<path style="fill:#828382; stroke:none;" d="M142 9L143 10L142 9z"/>
<path style="fill:#b5b5b5; stroke:none;" d="M152 9L153 10L152 9M119 10L120 11L119 10M132 10L133 11L132 10M140 10L141 11L140 10M153 10L154 11L153 10z"/>
<path style="fill:#5a5c5b; stroke:none;" d="M133 11L134 12L133 11z"/>
<path style="fill:#b5b5b5; stroke:none;" d="M134 11L134 12L139 12L134 11z"/>
<path style="fill:#5a5c5b; stroke:none;" d="M139 11L140 12L139 11M153 11L154 12L153 11z"/>
<path style="fill:#828382; stroke:none;" d="M118 12L119 13L118 12z"/>
<path style="fill:#b5b5b5; stroke:none;" d="M154 12L155 13L154 12M117 13L118 14L117 13z"/>
<path style="fill:#828382; stroke:none;" d="M155 14L156 15L155 14z"/>
<path style="fill:#5a5c5b; stroke:none;" d="M116 15L117 16L116 15z"/>
<path style="fill:#b5b5b5; stroke:none;" d="M156 15L157 16L156 15M105.667 16.3333L106.333 16.6667L105.667 16.3333M114 16L115 17L114 16z"/>
<path style="fill:#5a5c5b; stroke:none;" d="M115 16L116 17L115 16z"/>
<path style="fill:#828382; stroke:none;" d="M157 16L158 17L157 16z"/>
<path style="fill:#b5b5b5; stroke:none;" d="M102 17L103 18L102 17z"/>
<path style="fill:#5a5c5b; stroke:none;" d="M103 17L104 18L103 17M108 17L109 18L108 17z"/>
<path style="fill:#828382; stroke:none;" d="M109 17L110 18L109 17z"/>
<path style="fill:#b5b5b5; stroke:none;" d="M110.667 17.3333L111.333 17.6667L110.667 17.3333z"/>
<path style="fill:#828382; stroke:none;" d="M112 17L113 18L112 17z"/>
<path style="fill:#5a5c5b; stroke:none;" d="M113 17L114 18L113 17z"/>
<path style="fill:#828382; stroke:none;" d="M159 17L160 18L159 17z"/>
<path style="fill:#b5b5b5; stroke:none;" d="M160 17L160 18L164 18L160 17z"/>
<path style="fill:#828382; stroke:none;" d="M164 17L165 18L164 17z"/>
<path style="fill:#5a5c5b; stroke:none;" d="M165 17L166 18L165 17M168 17L169 18L168 17z"/>
<path style="fill:#828382; stroke:none;" d="M169 17L170 18L169 17z"/>
<path style="fill:#b5b5b5; stroke:none;" d="M100 18L101 19L100 18M171 18L172 19L171 18z"/>
<path style="fill:#828382; stroke:none;" d="M172 19L173 20L172 19z"/>
<path style="fill:#5a5c5b; stroke:none;" d="M99 20L100 21L99 20z"/>
<path style="fill:#b5b5b5; stroke:none;" d="M173 20L174 21L173 20M98 21L99 22L98 21z"/>
<path style="fill:#5a5c5b; stroke:none;" d="M173 21L174 22L173 21z"/>
<path style="fill:#828382; stroke:none;" d="M98 22L99 23L98 22z"/>
<path style="fill:#5a5c5b; stroke:none;" d="M98 23L98 26L99 26L98 23z"/>
<path style="fill:#b5b5b5; stroke:none;" d="M174 23L174 29L175 29L174 23M97 28L98 29L97 28z"/>
<path style="fill:#828382; stroke:none;" d="M97 29L98 30L97 29z"/>
<path style="fill:#5a5c5b; stroke:none;" d="M129 29L130 30L129 29z"/>
<path style="fill:#828382; stroke:none;" d="M130 29L131 30L130 29z"/>
<path style="fill:#b5b5b5; stroke:none;" d="M131 29L131 30L134 30L131 29z"/>
<path style="fill:#f7f7f7; stroke:none;" d="M134 29.4429C89.4279 34.7508 96.4306 100.672 141 95.8264C182.34 91.3314 175.17 24.5402 134 29.4429z"/>
<path style="fill:#b5b5b5; stroke:none;" d="M139.667 29.3333L140.333 29.6667L139.667 29.3333z"/>
<path style="fill:#828382; stroke:none;" d="M141 29L142 30L141 29z"/>
<path style="fill:#5a5c5b; stroke:none;" d="M142 29L143 30L142 29M174 29L175 30L174 29z"/>
<path style="fill:#b5b5b5; stroke:none;" d="M96 30L97 31L96 30z"/>
<path style="fill:#5a5c5b; stroke:none;" d="M125 30L126 31L125 30z"/>
<path style="fill:#828382; stroke:none;" d="M126 30L127 31L126 30z"/>
<path style="fill:#b5b5b5; stroke:none;" d="M127 30L128 31L127 30M145 30L146 31L145 30z"/>
<path style="fill:#5a5c5b; stroke:none;" d="M146 30L147 31L146 30z"/>
<path style="fill:#b5b5b5; stroke:none;" d="M175 30L176 31L175 30z"/>
<path style="fill:#828382; stroke:none;" d="M123 31L124 32L123 31z"/>
<path style="fill:#b5b5b5; stroke:none;" d="M124 31L125 32L124 31M148 31L149 32L148 31z"/>
<path style="fill:#5a5c5b; stroke:none;" d="M149 31L150 32L149 31z"/>
<path style="fill:#b5b5b5; stroke:none;" d="M176 31L177 32L176 31M94 32L95 33L94 32M121 32L122 33L121 32M150 32L151 33L150 32z"/>
<path style="fill:#5a5c5b; stroke:none;" d="M151 32L152 33L151 32z"/>
<path style="fill:#b5b5b5; stroke:none;" d="M177 32L178 33L177 32M91.6667 33.3333L92.3333 33.6667L91.6667 33.3333z"/>
<path style="fill:#5a5c5b; stroke:none;" d="M93 33L94 34L93 33z"/>
<path style="fill:#b5b5b5; stroke:none;" d="M119 33L120 34L119 33M152 33L153 34L152 33z"/>
<path style="fill:#5a5c5b; stroke:none;" d="M153 33L154 34L153 33z"/>
<path style="fill:#828382; stroke:none;" d="M178 33L179 34L178 33z"/>
<path style="fill:#b5b5b5; stroke:none;" d="M179 33L180 34L179 33M88 34L89 35L88 34z"/>
<path style="fill:#828382; stroke:none;" d="M89 34L90 35L89 34z"/>
<path style="fill:#5a5c5b; stroke:none;" d="M90 34L91 35L90 34M117 34L118 35L117 34z"/>
<path style="fill:#828382; stroke:none;" d="M154 34L155 35L154 34M181 34L182 35L181 34z"/>
<path style="fill:#b5b5b5; stroke:none;" d="M182 34L183 35L182 34z"/>
<path style="fill:#828382; stroke:none;" d="M87 35L88 36L87 35z"/>
<path style="fill:#b5b5b5; stroke:none;" d="M116 35L117 36L116 35M155 35L156 36L155 35z"/>
<path style="fill:#828382; stroke:none;" d="M184 35L185 36L184 35M86 36L87 37L86 36z"/>
<path style="fill:#b5b5b5; stroke:none;" d="M115 36L116 37L115 36z"/>
<path style="fill:#5a5c5b; stroke:none;" d="M157 36L158 37L157 36M185 36L186 37L185 36z"/>
<path style="fill:#b5b5b5; stroke:none;" d="M85 37L86 38L85 37z"/>
<path style="fill:#5a5c5b; stroke:none;" d="M113 37L114 38L113 37z"/>
<path style="fill:#828382; stroke:none;" d="M158 37L159 38L158 37M186 37L187 38L186 37z"/>
<path style="fill:#5a5c5b; stroke:none;" d="M112 38L113 39L112 38z"/>
<path style="fill:#b5b5b5; stroke:none;" d="M159 38L160 39L159 38M84 39L85 40L84 39z"/>
<path style="fill:#5a5c5b; stroke:none;" d="M111 39L112 40L111 39z"/>
<path style="fill:#b5b5b5; stroke:none;" d="M160 39L161 40L160 39z"/>
<path style="fill:#828382; stroke:none;" d="M187 39L188 40L187 39M84 40L84 43L85 43L84 40z"/>
<path style="fill:#5a5c5b; stroke:none;" d="M110 40L111 41L110 40z"/>
<path style="fill:#828382; stroke:none;" d="M161 40L162 41L161 40z"/>
<path style="fill:#5a5c5b; stroke:none;" d="M187 40L187 43L188 43L187 40z"/>
<path style="fill:#828382; stroke:none;" d="M162 41L163 42L162 41z"/>
<path style="fill:#b5b5b5; stroke:none;" d="M109 42L110 43L109 42M84 43L85 44L84 43M108 43L109 44L108 43M163 43L164 44L163 43z"/>
<path style="fill:#828382; stroke:none;" d="M187 43L188 44L187 43z"/>
<path style="fill:#5a5c5b; stroke:none;" d="M107 44L108 45L107 44z"/>
<path style="fill:#828382; stroke:none;" d="M164 44L165 45L164 44z"/>
<path style="fill:#b5b5b5; stroke:none;" d="M187 44L188 45L187 44M85 45L86 46L85 45M107 45L108 46L107 45z"/>
<path style="fill:#828382; stroke:none;" d="M106 46L107 47L106 46M148 46L138 57L148 46z"/>
<path style="fill:#4a4c4c; stroke:none;" d="M149 46C144.663 50.337 138.021 60.1992 132 61.7932C126.745 63.1844 122.069 53.4011 117.752 62.0201C115.368 66.7783 127.185 78.8546 132 77.6543C139.96 75.67 152.373 59.5681 157 53L149 46z"/>
<path style="fill:#b5b5b5; stroke:none;" d="M165 46L166 47L165 46z"/>
<path style="fill:#828382; stroke:none;" d="M186 46L187 47L186 46z"/>
<path style="fill:#5a5c5b; stroke:none;" d="M86 47L87 48L86 47M150 47L151 48L150 47M166 47L167 48L166 47z"/>
<path style="fill:#b5b5b5; stroke:none;" d="M86 48L86 51L87 51L86 48z"/>
<path style="fill:#828382; stroke:none;" d="M105 48L106 49L105 48z"/>
<path style="fill:#5a5c5b; stroke:none;" d="M151 48L152 49L151 48z"/>
<path style="fill:#b5b5b5; stroke:none;" d="M166 48L167 49L166 48z"/>
<path style="fill:#5a5c5b; stroke:none;" d="M185 48L186 49L185 48z"/>
<path style="fill:#b5b5b5; stroke:none;" d="M105 49L106 50L105 49z"/>
<path style="fill:#5a5c5b; stroke:none;" d="M152 49L153 50L152 49M167 49L168 50L167 49z"/>
<path style="fill:#828382; stroke:none;" d="M185.333 49.6667L185.667 50.3333L185.333 49.6667z"/>
<path style="fill:#5a5c5b; stroke:none;" d="M104 50L105 51L104 50M153 50L154 51L153 50z"/>
<path style="fill:#b5b5b5; stroke:none;" d="M167 50L168 51L167 50z"/>
<path style="fill:#828382; stroke:none;" d="M86 51L87 52L86 51z"/>
<path style="fill:#b5b5b5; stroke:none;" d="M104 51L105 52L104 51z"/>
<path style="fill:#5a5c5b; stroke:none;" d="M154 51L155 52L154 51M185 51L186 52L185 51M155 52L156 53L155 52M168 52L169 53L168 52z"/>
<path style="fill:#b5b5b5; stroke:none;" d="M85 53L86 54L85 53z"/>
<path style="fill:#5a5c5b; stroke:none;" d="M103 53L104 54L103 53z"/>
<path style="fill:#b5b5b5; stroke:none;" d="M168.333 53.6667L168.667 54.3333L168.333 53.6667z"/>
<path style="fill:#828382; stroke:none;" d="M186 53L187 54L186 53z"/>
<path style="fill:#b5b5b5; stroke:none;" d="M84 54L85 55L84 54M103.333 54.6667L103.667 55.3333L103.333 54.6667M156 54L157 55L156 54M187 54L188 55L187 54M155 55L156 56L155 55M188 55L189 56L188 55M82 56L83 57L82 56M122.667 56.3333L123.333 56.6667L122.667 56.3333M154 56L155 57L154 56z"/>
<path style="fill:#828382; stroke:none;" d="M169.333 56.6667L169.667 57.3333L169.333 56.6667z"/>
<path style="fill:#b5b5b5; stroke:none;" d="M189 56L190 57L189 56M81 57L82 58L81 57z"/>
<path style="fill:#5a5c5b; stroke:none;" d="M102 57L103 58L102 57z"/>
<path style="fill:#b5b5b5; stroke:none;" d="M124 57L125 58L124 57z"/>
<path style="fill:#5a5c5b; stroke:none;" d="M137 57L138 58L137 57z"/>
<path style="fill:#b5b5b5; stroke:none;" d="M153 57L154 58L153 57z"/>
<path style="fill:#828382; stroke:none;" d="M190 57L191 58L190 57M102 58L102 61L103 61L102 58z"/>
<path style="fill:#b5b5b5; stroke:none;" d="M125 58L126 59L125 58z"/>
<path style="fill:#5a5c5b; stroke:none;" d="M136 58L137 59L136 58z"/>
<path style="fill:#b5b5b5; stroke:none;" d="M152 58L153 59L152 58M169.333 58.6667L169.667 59.3333L169.333 58.6667M191 58L192 59L191 58z"/>
<path style="fill:#5a5c5b; stroke:none;" d="M80 59L81 60L80 59z"/>
<path style="fill:#b5b5b5; stroke:none;" d="M119 59L120 60L119 59M126 59L127 60L126 59z"/>
<path style="fill:#5a5c5b; stroke:none;" d="M135 59L136 60L135 59z"/>
<path style="fill:#b5b5b5; stroke:none;" d="M151 59L152 60L151 59M79 60L79 65L80 65L79 60M127 60L128 61L127 60z"/>
<path style="fill:#828382; stroke:none;" d="M134 60L135 61L134 60z"/>
<path style="fill:#b5b5b5; stroke:none;" d="M150 60L151 61L150 60z"/>
<path style="fill:#828382; stroke:none;" d="M192 60L193 61L192 60z"/>
<path style="fill:#b5b5b5; stroke:none;" d="M102 61L102 66L103 66L102 61M117 61L118 62L117 61M128 61L129 62L128 61z"/>
<path style="fill:#5a5c5b; stroke:none;" d="M133 61L134 62L133 61z"/>
<path style="fill:#b5b5b5; stroke:none;" d="M149 61L150 62L149 61M116 62L117 63L116 62M129 62L130 63L129 62z"/>
<path style="fill:#5a5c5b; stroke:none;" d="M132 62L133 63L132 62z"/>
<path style="fill:#b5b5b5; stroke:none;" d="M148 62L149 63L148 62M115 63L116 64L115 63M130 63L131 64L130 63z"/>
<path style="fill:#5a5c5b; stroke:none;" d="M131 63L132 64L131 63z"/>
<path style="fill:#b5b5b5; stroke:none;" d="M147 63L148 64L147 63z"/>
<path style="fill:#828382; stroke:none;" d="M115 64L116 65L115 64z"/>
<path style="fill:#b5b5b5; stroke:none;" d="M146 64L147 65L146 64M169 64L169 68L170 68L169 64z"/>
<path style="fill:#5a5c5b; stroke:none;" d="M192 64L193 65L192 64z"/>
<path style="fill:#828382; stroke:none;" d="M116 65L117 66L116 65z"/>
<path style="fill:#b5b5b5; stroke:none;" d="M145 65L146 66L145 65z"/>
<path style="fill:#828382; stroke:none;" d="M192 65L193 66L192 65M80 66L81 67L80 66M102 66L103 67L102 66M117 66L118 67L117 66z"/>
<path style="fill:#b5b5b5; stroke:none;" d="M144 66L145 67L144 66M192 66L193 67L192 66z"/>
<path style="fill:#5a5c5b; stroke:none;" d="M81 67L82 68L81 67M102 67L103 68L102 67z"/>
<path style="fill:#828382; stroke:none;" d="M118 67L119 68L118 67z"/>
<path style="fill:#b5b5b5; stroke:none;" d="M143 67L144 68L143 67M191 67L192 68L191 67z"/>
<path style="fill:#5a5c5b; stroke:none;" d="M82 68L83 69L82 68z"/>
<path style="fill:#828382; stroke:none;" d="M119 68L120 69L119 68z"/>
<path style="fill:#b5b5b5; stroke:none;" d="M142 68L143 69L142 68z"/>
<path style="fill:#828382; stroke:none;" d="M169 68L170 69L169 68z"/>
<path style="fill:#b5b5b5; stroke:none;" d="M190 68L191 69L190 68z"/>
<path style="fill:#828382; stroke:none;" d="M83 69L84 70L83 69M120 69L121 70L120 69z"/>
<path style="fill:#b5b5b5; stroke:none;" d="M141 69L142 70L141 69z"/>
<path style="fill:#5a5c5b; stroke:none;" d="M169 69L170 70L169 69z"/>
<path style="fill:#b5b5b5; stroke:none;" d="M189 69L190 70L189 69z"/>
<path style="fill:#828382; stroke:none;" d="M84 70L85 71L84 70z"/>
<path style="fill:#b5b5b5; stroke:none;" d="M103 70L104 71L103 70z"/>
<path style="fill:#828382; stroke:none;" d="M121 70L122 71L121 70z"/>
<path style="fill:#b5b5b5; stroke:none;" d="M140 70L141 71L140 70M188 70L189 71L188 70z"/>
<path style="fill:#5a5c5b; stroke:none;" d="M85 71L86 72L85 71z"/>
<path style="fill:#828382; stroke:none;" d="M103 71L104 72L103 71M122 71L123 72L122 71z"/>
<path style="fill:#b5b5b5; stroke:none;" d="M139 71L140 72L139 71M168 71L169 72L168 71M187 71L188 72L187 71M85 72L86 73L85 72z"/>
<path style="fill:#5a5c5b; stroke:none;" d="M103 72L104 73L103 72z"/>
<path style="fill:#828382; stroke:none;" d="M123 72L124 73L123 72z"/>
<path style="fill:#b5b5b5; stroke:none;" d="M138 72L139 73L138 72z"/>
<path style="fill:#828382; stroke:none;" d="M168 72L169 73L168 72z"/>
<path style="fill:#5a5c5b; stroke:none;" d="M186 72L187 73L186 72M86 73L87 74L86 73z"/>
<path style="fill:#828382; stroke:none;" d="M124 73L125 74L124 73z"/>
<path style="fill:#b5b5b5; stroke:none;" d="M137 73L138 74L137 73M186 73L187 74L186 73M86 74L86 77L87 77L86 74z"/>
<path style="fill:#828382; stroke:none;" d="M104 74L105 75L104 74M125 74L126 75L125 74z"/>
<path style="fill:#b5b5b5; stroke:none;" d="M136 74L137 75L136 74M167 74L168 75L167 74z"/>
<path style="fill:#5a5c5b; stroke:none;" d="M104 75L105 76L104 75z"/>
<path style="fill:#828382; stroke:none;" d="M126 75L127 76L126 75z"/>
<path style="fill:#b5b5b5; stroke:none;" d="M135 75L136 76L135 75z"/>
<path style="fill:#828382; stroke:none;" d="M167 75L168 76L167 75z"/>
<path style="fill:#5a5c5b; stroke:none;" d="M185.333 75.6667L185.667 76.3333L185.333 75.6667z"/>
<path style="fill:#b5b5b5; stroke:none;" d="M105 76L106 77L105 76z"/>
<path style="fill:#828382; stroke:none;" d="M127 76L128 77L127 76z"/>
<path style="fill:#b5b5b5; stroke:none;" d="M134 76L135 77L134 76z"/>
<path style="fill:#828382; stroke:none;" d="M86 77L87 78L86 77z"/>
<path style="fill:#5a5c5b; stroke:none;" d="M105 77L106 78L105 77z"/>
<path style="fill:#828382; stroke:none;" d="M128 77L129 78L128 77z"/>
<path style="fill:#b5b5b5; stroke:none;" d="M133 77L134 78L133 77z"/>
<path style="fill:#828382; stroke:none;" d="M166 77L167 78L166 77z"/>
<path style="fill:#5a5c5b; stroke:none;" d="M86 78L87 79L86 78z"/>
<path style="fill:#b5b5b5; stroke:none;" d="M106 78L107 79L106 78z"/>
<path style="fill:#828382; stroke:none;" d="M129 78L130 79L129 78z"/>
<path style="fill:#b5b5b5; stroke:none;" d="M132 78L133 79L132 78M186 78L187 79L186 78M85 79L86 80L85 79z"/>
<path style="fill:#5a5c5b; stroke:none;" d="M106 79L107 80L106 79z"/>
<path style="fill:#828382; stroke:none;" d="M130 79L131 80L130 79z"/>
<path style="fill:#b5b5b5; stroke:none;" d="M131 79L132 80L131 79z"/>
<path style="fill:#828382; stroke:none;" d="M165 79L166 80L165 79M186 79L187 80L186 79M85 80L86 81L85 80z"/>
<path style="fill:#b5b5b5; stroke:none;" d="M107 80L108 81L107 80M164 80L165 81L164 80z"/>
<path style="fill:#5a5c5b; stroke:none;" d="M164 81L165 82L164 81z"/>
<path style="fill:#b5b5b5; stroke:none;" d="M187 81L188 82L187 81M84 82L85 83L84 82z"/>
<path style="fill:#5a5c5b; stroke:none;" d="M108 82L109 83L108 82z"/>
<path style="fill:#828382; stroke:none;" d="M163 82L164 83L163 82z"/>
<path style="fill:#5a5c5b; stroke:none;" d="M187 82L188 83L187 82z"/>
<path style="fill:#828382; stroke:none;" d="M84.3333 83.6667L84.6667 84.3333L84.3333 83.6667M109 83L110 84L109 83z"/>
<path style="fill:#b5b5b5; stroke:none;" d="M162 83L163 84L162 83M110 84L111 85L110 84M161 84L162 85L161 84M84.3333 85.6667L84.6667 86.3333L84.3333 85.6667M111 85L112 86L111 85M112 86L113 87L112 86z"/>
<path style="fill:#5a5c5b; stroke:none;" d="M160 86L161 87L160 86M187 86L188 87L187 86M85 87L86 88L85 87z"/>
<path style="fill:#b5b5b5; stroke:none;" d="M113 87L114 88L113 87z"/>
<path style="fill:#5a5c5b; stroke:none;" d="M159 87L160 88L159 87z"/>
<path style="fill:#b5b5b5; stroke:none;" d="M187 87L188 88L187 87M85 88L86 89L85 88M114 88L115 89L114 88M157 88L158 89L157 88z"/>
<path style="fill:#5a5c5b; stroke:none;" d="M186 88L187 89L186 88z"/>
<path style="fill:#b5b5b5; stroke:none;" d="M86 89L87 90L86 89z"/>
<path style="fill:#828382; stroke:none;" d="M115 89L116 90L115 89z"/>
<path style="fill:#b5b5b5; stroke:none;" d="M156 89L157 90L156 89z"/>
<path style="fill:#5a5c5b; stroke:none;" d="M185 89L186 90L185 89M88 90L89 91L88 90M116 90L117 91L116 90z"/>
<path style="fill:#b5b5b5; stroke:none;" d="M117 90L118 91L117 90z"/>
<path style="fill:#828382; stroke:none;" d="M155 90L156 91L155 90M184 90L185 91L184 90z"/>
<path style="fill:#b5b5b5; stroke:none;" d="M90 91L91 92L90 91z"/>
<path style="fill:#828382; stroke:none;" d="M91 91L92 92L91 91M118 91L119 92L118 91z"/>
<path style="fill:#b5b5b5; stroke:none;" d="M153 91L154 92L153 91z"/>
<path style="fill:#828382; stroke:none;" d="M181 91L182 92L181 91z"/>
<path style="fill:#b5b5b5; stroke:none;" d="M182 91L183 92L182 91M93 92L94 93L93 92z"/>
<path style="fill:#5a5c5b; stroke:none;" d="M94 92L95 93L94 92M119 92L120 93L119 92z"/>
<path style="fill:#b5b5b5; stroke:none;" d="M120 92L121 93L120 92M151 92L152 93L151 92z"/>
<path style="fill:#5a5c5b; stroke:none;" d="M152 92L153 93L152 92z"/>
<path style="fill:#828382; stroke:none;" d="M178 92L179 93L178 92z"/>
<path style="fill:#b5b5b5; stroke:none;" d="M179 92L180 93L179 92z"/>
<path style="fill:#828382; stroke:none;" d="M95 93L96 94L95 93z"/>
<path style="fill:#5a5c5b; stroke:none;" d="M121 93L122 94L121 93z"/>
<path style="fill:#b5b5b5; stroke:none;" d="M122 93L123 94L122 93M149 93L150 94L149 93z"/>
<path style="fill:#5a5c5b; stroke:none;" d="M150 93L151 94L150 93z"/>
<path style="fill:#b5b5b5; stroke:none;" d="M177 93L178 94L177 93z"/>
<path style="fill:#828382; stroke:none;" d="M96 94L97 95L96 94M124 94L125 95L124 94z"/>
<path style="fill:#b5b5b5; stroke:none;" d="M125 94L126 95L125 94z"/>
<path style="fill:#828382; stroke:none;" d="M147 94L148 95L147 94z"/>
<path style="fill:#5a5c5b; stroke:none;" d="M148 94L149 95L148 94z"/>
<path style="fill:#b5b5b5; stroke:none;" d="M176 94L177 95L176 94z"/>
<path style="fill:#5a5c5b; stroke:none;" d="M97 95L98 96L97 95z"/>
<path style="fill:#828382; stroke:none;" d="M127 95L128 96L127 95z"/>
<path style="fill:#b5b5b5; stroke:none;" d="M128 95L129 96L128 95M143 95L144 96L143 95z"/>
<path style="fill:#828382; stroke:none;" d="M144 95L145 96L144 95z"/>
<path style="fill:#5a5c5b; stroke:none;" d="M145 95L146 96L145 95z"/>
<path style="fill:#828382; stroke:none;" d="M175 95L176 96L175 95z"/>
<path style="fill:#b5b5b5; stroke:none;" d="M97 96L98 97L97 96z"/>
<path style="fill:#5a5c5b; stroke:none;" d="M131 96L132 97L131 96z"/>
<path style="fill:#828382; stroke:none;" d="M132 96L132 97L140 97L132 96z"/>
<path style="fill:#5a5c5b; stroke:none;" d="M140 96L141 97L140 96z"/>
<path style="fill:#828382; stroke:none;" d="M174 97L175 98L174 97z"/>
<path style="fill:#b5b5b5; stroke:none;" d="M174 98L174 102L175 102L174 98z"/>
<path style="fill:#5a5c5b; stroke:none;" d="M98 99L98 102L99 102L98 99z"/>
<path style="fill:#828382; stroke:none;" d="M98 102L99 103L98 102z"/>
<path style="fill:#b5b5b5; stroke:none;" d="M98 103L99 104L98 103z"/>
<path style="fill:#828382; stroke:none;" d="M173 104L174 105L173 104M99 105L100 106L99 105M100 106L101 107L100 106z"/>
<path style="fill:#b5b5b5; stroke:none;" d="M172 106L173 107L172 106M101 107L102 108L101 107z"/>
<path style="fill:#5a5c5b; stroke:none;" d="M170 107L171 108L170 107z"/>
<path style="fill:#b5b5b5; stroke:none;" d="M171 107L172 108L171 107M103 108L104 109L103 108z"/>
<path style="fill:#828382; stroke:none;" d="M104 108L104 109L107 109L104 108z"/>
<path style="fill:#b5b5b5; stroke:none;" d="M107 108L108 109L107 108M113 108L114 109L113 108z"/>
<path style="fill:#5a5c5b; stroke:none;" d="M114 108L115 109L114 108z"/>
<path style="fill:#828382; stroke:none;" d="M158 108L159 109L158 108z"/>
<path style="fill:#b5b5b5; stroke:none;" d="M159 108L160 109L159 108M163 108L164 109L163 108z"/>
<path style="fill:#828382; stroke:none;" d="M164.667 108.333L165.333 108.667L164.667 108.333z"/>
<path style="fill:#5a5c5b; stroke:none;" d="M166.667 108.333L167.333 108.667L166.667 108.333z"/>
<path style="fill:#828382; stroke:none;" d="M168 108L169 109L168 108z"/>
<path style="fill:#b5b5b5; stroke:none;" d="M169 108L170 109L169 108z"/>
<path style="fill:#828382; stroke:none;" d="M115 109L116 110L115 109z"/>
<path style="fill:#5a5c5b; stroke:none;" d="M156 109L157 110L156 109z"/>
<path style="fill:#828382; stroke:none;" d="M116 110L117 111L116 110z"/>
<path style="fill:#5a5c5b; stroke:none;" d="M155 110L156 111L155 110M117 111L118 112L117 111z"/>
<path style="fill:#b5b5b5; stroke:none;" d="M117 112L118 113L117 112z"/>
<path style="fill:#828382; stroke:none;" d="M154 112L155 113L154 112z"/>
<path style="fill:#5a5c5b; stroke:none;" d="M118 113L119 114L118 113M135.667 113.333L136.333 113.667L135.667 113.333z"/>
<path style="fill:#b5b5b5; stroke:none;" d="M118 114L119 115L118 114z"/>
<path style="fill:#828382; stroke:none;" d="M132 114L133 115L132 114z"/>
<path style="fill:#b5b5b5; stroke:none;" d="M133 114L134 115L133 114z"/>
<path style="fill:#828382; stroke:none;" d="M139 114L140 115L139 114z"/>
<path style="fill:#b5b5b5; stroke:none;" d="M153 114L154 115L153 114M119 115L120 116L119 115z"/>
<path style="fill:#5a5c5b; stroke:none;" d="M130 115L131 116L130 115z"/>
<path style="fill:#b5b5b5; stroke:none;" d="M131 115L132 116L131 115M140 115L141 116L140 115z"/>
<path style="fill:#828382; stroke:none;" d="M152 115L153 116L152 115z"/>
<path style="fill:#b5b5b5; stroke:none;" d="M120 116L121 117L120 116z"/>
<path style="fill:#828382; stroke:none;" d="M129 116L130 117L129 116z"/>
<path style="fill:#5a5c5b; stroke:none;" d="M142 116L143 117L142 116z"/>
<path style="fill:#828382; stroke:none;" d="M151 116L152 117L151 116M122 117L123 118L122 117z"/>
<path style="fill:#5a5c5b; stroke:none;" d="M123 117L124 118L123 117z"/>
<path style="fill:#828382; stroke:none;" d="M127 117L128 118L127 117z"/>
<path style="fill:#b5b5b5; stroke:none;" d="M128 117L129 118L128 117M143 117L144 118L143 117z"/>
<path style="fill:#5a5c5b; stroke:none;" d="M149 117L150 118L149 117z"/>
<path style="fill:#b5b5b5; stroke:none;" d="M150 117L151 118L150 117z"/>
<path style="fill:#828382; stroke:none;" d="M97.6667 118.333L98.3333 118.667L97.6667 118.333z"/>
<path style="fill:#b5b5b5; stroke:none;" d="M99 118L100 119L99 118M146.667 118.333L147.333 118.667L146.667 118.333M173 118L174 119L173 118z"/>
<path style="fill:#828382; stroke:none;" d="M174 118L175 119L174 118z"/>
<path style="fill:#4a4c4c; stroke:none;" d="M97 119L80 163C85.6816 162.74 92.5009 158.199 97.9066 159.121C103.185 160.022 107.115 170.627 109 175L111 175C118.35 162.085 126.476 143.658 129 129L97 119z"/>
<path style="fill:#828382; stroke:none;" d="M101 119L102 120L101 119z"/>
<path style="fill:#b5b5b5; stroke:none;" d="M102 119L102 120L105 120L102 119M106.667 119.333L107.333 119.667L106.667 119.333z"/>
<path style="fill:#828382; stroke:none;" d="M108 119L109 120L108 119z"/>
<path style="fill:#b5b5b5; stroke:none;" d="M162 121L165 120L162 121M169.667 119.333L170.333 119.667L169.667 119.333z"/>
<path style="fill:#828382; stroke:none;" d="M171 119L172 120L171 119z"/>
<path style="fill:#4a4c4c; stroke:none;" d="M142 129L161 175L173.21 160.212L192 164L175 119C162.664 120.559 154.626 131.24 142 129z"/>
<path style="fill:#b5b5b5; stroke:none;" d="M175 119L176 120L175 119M96 120L97 121L96 120M109 120L110 121L109 120z"/>
<path style="fill:#828382; stroke:none;" d="M175 120L176 121L175 120z"/>
<path style="fill:#5a5c5b; stroke:none;" d="M96 121L97 122L96 121M162 121L163 122L162 121z"/>
<path style="fill:#b5b5b5; stroke:none;" d="M95 122L96 123L95 122z"/>
<path style="fill:#5a5c5b; stroke:none;" d="M110 122L111 123L110 122z"/>
<path style="fill:#828382; stroke:none;" d="M161 122L162 123L161 122z"/>
<path style="fill:#b5b5b5; stroke:none;" d="M176 122L177 123L176 122z"/>
<path style="fill:#828382; stroke:none;" d="M95 123L96 124L95 123M111 123L112 124L111 123z"/>
<path style="fill:#b5b5b5; stroke:none;" d="M160 123L161 124L160 123z"/>
<path style="fill:#5a5c5b; stroke:none;" d="M176 123L177 124L176 123M112 124L113 125L112 124z"/>
<path style="fill:#b5b5b5; stroke:none;" d="M159 124L160 125L159 124M177 124L178 125L177 124M94 125L95 126L94 125z"/>
<path style="fill:#828382; stroke:none;" d="M158 125L159 126L158 125M177 125L178 126L177 125z"/>
<path style="fill:#5a5c5b; stroke:none;" d="M94 126L95 127L94 126z"/>
<path style="fill:#828382; stroke:none;" d="M115 126L116 127L115 126z"/>
<path style="fill:#b5b5b5; stroke:none;" d="M156 126L157 127L156 126z"/>
<path style="fill:#5a5c5b; stroke:none;" d="M157 126L158 127L157 126z"/>
<path style="fill:#b5b5b5; stroke:none;" d="M93 127L94 128L93 127z"/>
<path style="fill:#828382; stroke:none;" d="M117 127L118 128L117 127z"/>
<path style="fill:#b5b5b5; stroke:none;" d="M154 127L155 128L154 127z"/>
<path style="fill:#828382; stroke:none;" d="M155 127L156 128L155 127z"/>
<path style="fill:#b5b5b5; stroke:none;" d="M178 127L179 128L178 127z"/>
<path style="fill:#828382; stroke:none;" d="M93 128L94 129L93 128z"/>
<path style="fill:#5a5c5b; stroke:none;" d="M119 128L120 129L119 128z"/>
<path style="fill:#828382; stroke:none;" d="M120 128L121 129L120 128z"/>
<path style="fill:#b5b5b5; stroke:none;" d="M121 128L122 129L121 128M127.667 128.333L128.333 128.667L127.667 128.333z"/>
<path style="fill:#828382; stroke:none;" d="M129 128L130 129L129 128z"/>
<path style="fill:#b5b5b5; stroke:none;" d="M130 128L131 129L130 128M142 128L143 129L142 128M152 128L153 129L152 128z"/>
<path style="fill:#5a5c5b; stroke:none;" d="M153 128L154 129L153 128M178 128L179 129L178 128M129 129L130 130L129 129M144 129L145 130L144 129z"/>
<path style="fill:#828382; stroke:none;" d="M145 129L145 130L149 130L145 129z"/>
<path style="fill:#5a5c5b; stroke:none;" d="M149 129L150 130L149 129z"/>
<path style="fill:#b5b5b5; stroke:none;" d="M92 130L93 131L92 130M129 130L130 131L129 130M142 130L143 131L142 130z"/>
<path style="fill:#828382; stroke:none;" d="M179 130L180 131L179 130z"/>
<path style="fill:#5a5c5b; stroke:none;" d="M92 131L93 132L92 131z"/>
<path style="fill:#828382; stroke:none;" d="M128 132L129 133L128 132M143 132L144 133L143 132z"/>
<path style="fill:#b5b5b5; stroke:none;" d="M180 132L181 133L180 132z"/>
<path style="fill:#828382; stroke:none;" d="M91 133L92 134L91 133z"/>
<path style="fill:#b5b5b5; stroke:none;" d="M128 133L129 134L128 133M143 133L144 134L143 133z"/>
<path style="fill:#5a5c5b; stroke:none;" d="M180 133L181 134L180 133M127 134L128 135L127 134M144 134L145 135L144 134z"/>
<path style="fill:#b5b5b5; stroke:none;" d="M181 134L182 135L181 134M90 135L91 136L90 135M127 135L128 136L127 135M144 135L145 136L144 135z"/>
<path style="fill:#828382; stroke:none;" d="M181 135L182 136L181 135z"/>
<path style="fill:#5a5c5b; stroke:none;" d="M90 136L91 137L90 136z"/>
<path style="fill:#828382; stroke:none;" d="M126 137L127 138L126 137M145 137L146 138L145 137z"/>
<path style="fill:#b5b5b5; stroke:none;" d="M182 137L183 138L182 137z"/>
<path style="fill:#828382; stroke:none;" d="M89 138L90 139L89 138z"/>
<path style="fill:#b5b5b5; stroke:none;" d="M126 138L127 139L126 138M145 138L146 139L145 138z"/>
<path style="fill:#5a5c5b; stroke:none;" d="M182 138L183 139L182 138M125 139L126 140L125 139z"/>
<path style="fill:#b5b5b5; stroke:none;" d="M88 140L89 141L88 140M125 140L126 141L125 140M146 140L147 141L146 140z"/>
<path style="fill:#828382; stroke:none;" d="M183 140L184 141L183 140z"/>
<path style="fill:#5a5c5b; stroke:none;" d="M88 141L89 142L88 141z"/>
<path style="fill:#b5b5b5; stroke:none;" d="M87 142L88 143L87 142z"/>
<path style="fill:#828382; stroke:none;" d="M124 142L125 143L124 142M147 142L148 143L147 142z"/>
<path style="fill:#b5b5b5; stroke:none;" d="M184 142L185 143L184 142z"/>
<path style="fill:#828382; stroke:none;" d="M87 143L88 144L87 143z"/>
<path style="fill:#b5b5b5; stroke:none;" d="M124 143L125 144L124 143M147 143L148 144L147 143z"/>
<path style="fill:#5a5c5b; stroke:none;" d="M184 143L185 144L184 143M148 144L149 145L148 144z"/>
<path style="fill:#b5b5b5; stroke:none;" d="M86 145L87 146L86 145z"/>
<path style="fill:#828382; stroke:none;" d="M123 145L124 146L123 145z"/>
<path style="fill:#b5b5b5; stroke:none;" d="M148 145L149 146L148 145z"/>
<path style="fill:#828382; stroke:none;" d="M185 145L186 146L185 145z"/>
<path style="fill:#5a5c5b; stroke:none;" d="M86 146L87 147L86 146z"/>
<path style="fill:#b5b5b5; stroke:none;" d="M85 147L86 148L85 147z"/>
<path style="fill:#828382; stroke:none;" d="M122 147L123 148L122 147M149 147L150 148L149 147z"/>
<path style="fill:#b5b5b5; stroke:none;" d="M186 147L187 148L186 147z"/>
<path style="fill:#828382; stroke:none;" d="M85 148L86 149L85 148z"/>
<path style="fill:#b5b5b5; stroke:none;" d="M122 148L123 149L122 148M149 148L150 149L149 148z"/>
<path style="fill:#828382; stroke:none;" d="M186 148L187 149L186 148z"/>
<path style="fill:#b5b5b5; stroke:none;" d="M84 150L85 151L84 150z"/>
<path style="fill:#828382; stroke:none;" d="M121 150L122 151L121 150z"/>
<path style="fill:#b5b5b5; stroke:none;" d="M150 150L151 151L150 150M187 150L188 151L187 150z"/>
<path style="fill:#5a5c5b; stroke:none;" d="M84 151L85 152L84 151M187 151L188 152L187 151z"/>
<path style="fill:#b5b5b5; stroke:none;" d="M83 152L84 153L83 152z"/>
<path style="fill:#828382; stroke:none;" d="M120 152L121 153L120 152M151 152L152 153L151 152z"/>
<path style="fill:#b5b5b5; stroke:none;" d="M188 152L189 153L188 152z"/>
<path style="fill:#828382; stroke:none;" d="M83 153L84 154L83 153z"/>
<path style="fill:#b5b5b5; stroke:none;" d="M120 153L121 154L120 153M151 153L152 154L151 153z"/>
<path style="fill:#828382; stroke:none;" d="M188 153L189 154L188 153z"/>
<path style="fill:#5a5c5b; stroke:none;" d="M152 154L153 155L152 154z"/>
<path style="fill:#b5b5b5; stroke:none;" d="M82 155L83 156L82 155M119 155L120 156L119 155M152 155L153 156L152 155M189 155L190 156L189 155z"/>
<path style="fill:#5a5c5b; stroke:none;" d="M82 156L83 157L82 156M189 156L190 157L189 156z"/>
<path style="fill:#828382; stroke:none;" d="M118 157L119 158L118 157M153 157L154 158L153 157z"/>
<path style="fill:#b5b5b5; stroke:none;" d="M190 157L191 158L190 157z"/>
<path style="fill:#828382; stroke:none;" d="M81 158L82 159L81 158z"/>
<path style="fill:#5a5c5b; stroke:none;" d="M97 158L98 159L97 158z"/>
<path style="fill:#828382; stroke:none;" d="M98.6667 158.333L99.3333 158.667L98.6667 158.333z"/>
<path style="fill:#b5b5b5; stroke:none;" d="M118 158L119 159L118 158M153 158L154 159L153 158z"/>
<path style="fill:#828382; stroke:none;" d="M190 158L191 159L190 158z"/>
<path style="fill:#5a5c5b; stroke:none;" d="M94 159L95 160L94 159z"/>
<path style="fill:#828382; stroke:none;" d="M95 159L96 160L95 159z"/>
<path style="fill:#b5b5b5; stroke:none;" d="M96 159L97 160L96 159z"/>
<path style="fill:#828382; stroke:none;" d="M100 159L101 160L100 159z"/>
<path style="fill:#b5b5b5; stroke:none;" d="M172 159L173 160L172 159M174 159L175 160L174 159z"/>
<path style="fill:#5a5c5b; stroke:none;" d="M175 159L176 160L175 159z"/>
<path style="fill:#b5b5b5; stroke:none;" d="M80 160L81 161L80 160z"/>
<path style="fill:#5a5c5b; stroke:none;" d="M91 160L92 161L91 160z"/>
<path style="fill:#b5b5b5; stroke:none;" d="M92.6667 160.333L93.3333 160.667L92.6667 160.333z"/>
<path style="fill:#828382; stroke:none;" d="M117 160L118 161L117 160z"/>
<path style="fill:#b5b5b5; stroke:none;" d="M154 160L155 161L154 160z"/>
<path style="fill:#5a5c5b; stroke:none;" d="M171 160L172 161L171 160z"/>
<path style="fill:#b5b5b5; stroke:none;" d="M177 160L178 161L177 160z"/>
<path style="fill:#5a5c5b; stroke:none;" d="M178 160L179 161L178 160z"/>
<path style="fill:#b5b5b5; stroke:none;" d="M191 160L192 161L191 160z"/>
<path style="fill:#5a5c5b; stroke:none;" d="M80 161L81 162L80 161M88 161L89 162L88 161z"/>
<path style="fill:#b5b5b5; stroke:none;" d="M89 161L90 162L89 161M101 161L102 162L101 161M180 161L181 162L180 161z"/>
<path style="fill:#5a5c5b; stroke:none;" d="M181 161L182 162L181 161M191 161L192 162L191 161z"/>
<path style="fill:#828382; stroke:none;" d="M85 162L86 163L85 162z"/>
<path style="fill:#b5b5b5; stroke:none;" d="M86 162L87 163L86 162z"/>
<path style="fill:#5a5c5b; stroke:none;" d="M102 162L103 163L102 162M116 162L117 163L116 162z"/>
<path style="fill:#828382; stroke:none;" d="M155 162L156 163L155 162M170 162L171 163L170 162z"/>
<path style="fill:#b5b5b5; stroke:none;" d="M183 162L184 163L183 162z"/>
<path style="fill:#828382; stroke:none;" d="M184 162L185 163L184 162z"/>
<path style="fill:#b5b5b5; stroke:none;" d="M192 162L193 163L192 162M80 163L81 164L80 163z"/>
<path style="fill:#5a5c5b; stroke:none;" d="M81 163L82 164L81 163z"/>
<path style="fill:#828382; stroke:none;" d="M82 163L83 164L82 163z"/>
<path style="fill:#b5b5b5; stroke:none;" d="M83 163L84 164L83 163M102 163L103 164L102 163M116 163L117 164L116 163M155 163L156 164L155 163M186 163L187 164L186 163z"/>
<path style="fill:#828382; stroke:none;" d="M187 163L188 164L187 163z"/>
<path style="fill:#5a5c5b; stroke:none;" d="M103 164L104 165L103 164M156 164L157 165L156 164z"/>
<path style="fill:#b5b5b5; stroke:none;" d="M169 164L170 165L169 164M189 164L189 165L192 165L189 164M103 165L104 166L103 165z"/>
<path style="fill:#828382; stroke:none;" d="M115 165L116 166L115 165z"/>
<path style="fill:#b5b5b5; stroke:none;" d="M156 165L157 166L156 165z"/>
<path style="fill:#5a5c5b; stroke:none;" d="M168 165L169 166L168 165z"/>
<path style="fill:#828382; stroke:none;" d="M104 166L105 167L104 166z"/>
<path style="fill:#b5b5b5; stroke:none;" d="M168 166L169 167L168 166z"/>
<path style="fill:#5a5c5b; stroke:none;" d="M114 167L115 168L114 167z"/>
<path style="fill:#828382; stroke:none;" d="M157 167L158 168L157 167z"/>
<path style="fill:#5a5c5b; stroke:none;" d="M167 167L168 168L167 167z"/>
<path style="fill:#b5b5b5; stroke:none;" d="M105 168L106 169L105 168M114 168L115 169L114 168M157 168L158 169L157 168z"/>
<path style="fill:#5a5c5b; stroke:none;" d="M106 169L107 170L106 169M158 169L159 170L158 169z"/>
<path style="fill:#828382; stroke:none;" d="M166 169L167 170L166 169z"/>
<path style="fill:#b5b5b5; stroke:none;" d="M106 170L107 171L106 170z"/>
<path style="fill:#828382; stroke:none;" d="M113 170L114 171L113 170z"/>
<path style="fill:#b5b5b5; stroke:none;" d="M158 170L159 171L158 170z"/>
<path style="fill:#5a5c5b; stroke:none;" d="M107 171L108 172L107 171z"/>
<path style="fill:#b5b5b5; stroke:none;" d="M165 171L166 172L165 171M107 172L108 173L107 172z"/>
<path style="fill:#828382; stroke:none;" d="M112 172L113 173L112 172M159 172L160 173L159 172M108 173L109 174L108 173z"/>
<path style="fill:#b5b5b5; stroke:none;" d="M112 173L113 174L112 173M159 173L160 174L159 173M164 173L165 174L164 173z"/>
<path style="fill:#5a5c5b; stroke:none;" d="M111 174L112 175L111 174M160 174L161 175L160 174M163 174L164 175L163 174z"/>
<path style="fill:#b5b5b5; stroke:none;" d="M110 175L111 176L110 175z"/>
<path style="fill:#828382; stroke:none;" d="M161.667 175.333L162.333 175.667L161.667 175.333z"/>
</svg>
